{
  "name": "puppet-gtest",
  "version": "1.0.0",
  "author": "Matthias Schmieder",
  "summary": "Installs gtest development library",
  "license": "Apache-2.0",
  "source": "https://bitbucket.org/mschmieder/puppet-gtest",
  "project_page": "https://bitbucket.org/mschmieder/puppet-gtest",
  "dependencies": [
    {"name":"puppetlabs/stdlib","version_requirement":">= 3.2.0 < 5.0.0"}
  ],
  "operatingsystem_support": [
    {
      "operatingsystem": "Debian",
      "operatingsystemrelease": [
        "6",
        "7"
      ]
    },
    {
      "operatingsystem": "Ubuntu",
      "operatingsystemrelease": [
        "10.04",
        "12.04",
        "14.04",
        "15.04",
        "15.10",
      ]
    },
  ],
  "requirements": [
    {
      "name": "puppet",
      "version_requirement": ">= 3.0.0 < 5.0.0"
    }
  ]
}
